Lab 1/simulation/modelsim/qsim/MyFirstProject.msim.vcd
$comment
	File created using the following command:
		vcd file MyFirstProject.msim.vcd -direction
$end
$date
	Sat Mar 06 22:05:47 2021
$end
$version
	ModelSim Version 10.1d
$end
$timescale
	1ps
$end
$scope module my_register_vlg_vec_tst $end
$var reg 1 ! CLK $end
$var reg 1 " CLR $end
$var reg 1 # I_0 $end
$var reg 1 $ I_1 $end
$var reg 1 % I_2 $end
$var reg 1 & I_3 $end
$var reg 1 ' S0 $end
$var reg 1 ( S1 $end
$var reg 1 ) SET $end
$var wire 1 * Q0 $end
$var wire 1 + Q1 $end
$var wire 1 , Q2 $end
$var wire 1 - Q3 $end
$var wire 1 . sampler $end
$scope module i1 $end
$var wire 1 / gnd $end
$var wire 1 0 vcc $end
$var wire 1 1 unknown $end
$var tri1 1 2 devclrn $end
$var tri1 1 3 devpor $end
$var tri1 1 4 devoe $end
$var wire 1 5 I_3~combout $end
$var wire 1 6 CLK~combout $end
$var wire 1 7 I_2~combout $end
$var wire 1 8 I_0~combout $end
$var wire 1 9 CLK~clkctrl_outclk $end
$var wire 1 : CLR~combout $end
$var wire 1 ; SET~combout $end
$var wire 1 < my_dff_3~1_combout $end
$var wire 1 = S0~combout $end
$var wire 1 > S1~combout $end
$var wire 1 ? I_1~combout $end
$var wire 1 @ inst3|inst~0_combout $end
$var wire 1 A inst3|inst~1_combout $end
$var wire 1 B my_dff_0~1_combout $end
$var wire 1 C my_dff_3~0_combout $end
$var wire 1 D my_dff_3~0clkctrl_outclk $end
$var wire 1 E my_dff_0~_emulated_regout $end
$var wire 1 F my_dff_0~0_combout $end
$var wire 1 G inst2|inst~0_combout $end
$var wire 1 H inst2|inst~1_combout $end
$var wire 1 I my_dff_1~1_combout $end
$var wire 1 J my_dff_1~_emulated_regout $end
$var wire 1 K my_dff_1~0_combout $end
$var wire 1 L inst1|inst~0_combout $end
$var wire 1 M inst1|inst~1_combout $end
$var wire 1 N my_dff_2~1_combout $end
$var wire 1 O my_dff_2~_emulated_regout $end
$var wire 1 P my_dff_2~0_combout $end
$var wire 1 Q inst|inst~0_combout $end
$var wire 1 R inst|inst~1_combout $end
$var wire 1 S my_dff_3~3_combout $end
$var wire 1 T my_dff_3~_emulated_regout $end
$var wire 1 U my_dff_3~2_combout $end
$upscope $end
$upscope $end
$enddefinitions $end
#0
$dumpvars
0!
0"
0#
1$
1%
0&
0'
0(
1)
0*
0+
0,
0-
x.
0/
10
x1
12
13
14
05
06
17
08
09
0:
1;
0<
0=
0>
1?
0@
0A
0B
1C
1D
0E
0F
1G
1H
1I
0J
0K
1L
1M
1N
0O
0P
0Q
0R
0S
0T
0U
$end
#20000
1"
1:
0.
0C
0D
#100000
1!
16
19
1.
1O
1J
1P
1K
1,
1+
#200000
0!
06
09
0.
#300000
1!
16
19
1.
#400000
0!
06
09
0.
#410000
1(
1'
1>
1=
1.
1Q
0H
1@
0M
1R
0I
1A
0N
1S
1B
#500000
1!
16
19
0.
1T
0O
0J
1E
1U
0P
0K
1F
0R
0A
1M
1H
1-
0,
0+
1*
0S
0B
1N
1I
#600000
0!
06
09
1.
#700000
1!
16
19
0.
0T
1O
1J
0E
0U
1P
1K
0F
1R
1A
0M
0H
0-
1,
1+
0*
1S
1B
0N
0I
#800000
0!
06
09
1.
#900000
1!
16
19
0.
1T
0O
0J
1E
1U
0P
0K
1F
0R
0A
1M
1H
1-
0,
0+
1*
0S
0B
1N
1I
