Lab 5/2/simulation/qsim/myFifth_2_Project.msim.vcd
$comment
	File created using the following command:
		vcd file myFifth_2_Project.msim.vcd -direction
$end
$date
	Sun Apr 18 00:20:21 2021
$end
$version
	ModelSim Version 10.1d
$end
$timescale
	1ps
$end
$scope module COUNTER_8_vlg_vec_tst $end
$var reg 1 ! CLK $end
$var reg 1 " CLR $end
$var reg 1 # SET $end
$var wire 1 $ OUTPUT [7] $end
$var wire 1 % OUTPUT [6] $end
$var wire 1 & OUTPUT [5] $end
$var wire 1 ' OUTPUT [4] $end
$var wire 1 ( OUTPUT [3] $end
$var wire 1 ) OUTPUT [2] $end
$var wire 1 * OUTPUT [1] $end
$var wire 1 + OUTPUT [0] $end
$var wire 1 , sampler $end
$scope module i1 $end
$var wire 1 - gnd $end
$var wire 1 . vcc $end
$var wire 1 / unknown $end
$var tri1 1 0 devclrn $end
$var tri1 1 1 devpor $end
$var tri1 1 2 devoe $end
$var wire 1 3 SET~combout $end
$var wire 1 4 CLR~combout $end
$var wire 1 5 count[0]~8_combout $end
$var wire 1 6 count[0]~10_combout $end
$var wire 1 7 count[0]~7_combout $end
$var wire 1 8 count[0]~_emulated_regout $end
$var wire 1 9 count[0]~9_combout $end
$var wire 1 : CLK~combout $end
$var wire 1 ; CLK~clkctrl_outclk $end
$var wire 1 < count[1]~12_combout $end
$var wire 1 = count[7]~14_combout $end
$var wire 1 > count[7]~14clkctrl_outclk $end
$var wire 1 ? count[1]~13 $end
$var wire 1 @ count[2]~15_combout $end
$var wire 1 A count[2]~16 $end
$var wire 1 B count[3]~17_combout $end
$var wire 1 C count[3]~18 $end
$var wire 1 D count[4]~19_combout $end
$var wire 1 E count[4]~20 $end
$var wire 1 F count[5]~21_combout $end
$var wire 1 G count[5]~22 $end
$var wire 1 H count[6]~23_combout $end
$var wire 1 I count[6]~24 $end
$var wire 1 J count[7]~25_combout $end
$var wire 1 K count [7] $end
$var wire 1 L count [6] $end
$var wire 1 M count [5] $end
$var wire 1 N count [4] $end
$var wire 1 O count [3] $end
$var wire 1 P count [2] $end
$var wire 1 Q count [1] $end
$var wire 1 R count [0] $end
$upscope $end
$upscope $end
$enddefinitions $end
#0
$dumpvars
0!
1"
0#
x+
x*
x)
x(
x'
x&
x%
x$
x,
0-
1.
x/
10
11
12
03
14
x5
x6
x7
x8
x9
0:
x;
x<
x=
x>
x?
x@
xA
xB
xC
xD
xE
xF
xG
xH
xI
xJ
zR
xQ
xP
xO
xN
xM
xL
xK
$end
#118
0;
#218
08
0Q
0P
0O
0N
0M
0L
0K
#819
17
#825
1=
#925
1A
#958
1I
#964
0?
#965
0C
1E
#1017
0G
#1052
09
#1053
05
#1335
0B
#1368
0J
#1374
0@
#1375
0F
0D
#1427
0H
#1504
1>
#1737
0<
#1857
16
#3638
0$
#3642
0)
#3650
0*
#3663
0&
#3848
0'
#3895
0(
#3910
0%
#4620
0+
#20000
1!
0,
#20999
1:
#21117
1;
#30000
0"
1,
#30979
04
#31798
07
#31804
0=
#32483
0>
#40000
0!
0,
#40999
0:
#41117
0;
#60000
1!
1,
#60999
1:
#61117
1;
#62948
18
#63407
19
#64092
1<
#64212
06
#66975
1+
#80000
0!
0,
#80999
0:
#81117
0;
#100000
1!
1,
#100999
1:
#101117
1;
#102948
08
1Q
#103407
09
#104212
16
#106380
1*
#106975
0+
#120000
0!
0,
#120999
0:
#121117
0;
#140000
1!
1,
#140999
1:
#141117
1;
#142948
18
#143407
19
#144065
1?
#144092
0<
#144212
06
#144475
1@
#146975
1+
#160000
0!
0,
#160999
0:
#161117
0;
#180000
1!
1,
#180999
1:
#181117
1;
#182948
08
0Q
1P
#183407
09
#183655
0A
#183682
0@
#183694
0?
#183765
1A
#184104
1@
#184212
16
#186372
1)
#186380
0*
#186975
0+
#200000
0!
0,
#200999
0:
#201117
0;
#220000
1!
1,
#220999
1:
#221117
1;
#222948
18
#223407
19
#224092
1<
#224212
06
#226975
1+
#240000
0!
0,
#240999
0:
#241117
0;
#260000
1!
1,
#260999
1:
#261117
1;
#262948
08
1Q
#263407
09
#264212
16
#266380
1*
#266975
0+
#280000
0!
0,
#280999
0:
#281117
0;
#300000
1!
1,
#300999
1:
#301117
1;
#302948
18
#303407
19
#304065
1?
#304092
0<
#304136
0A
#304212
06
#304475
0@
#304546
1B
#306975
1+
#320000
0!
0,
#320999
0:
#321117
0;
#340000
1!
1,
#340999
1:
#341117
1;
#342948
08
0Q
0P
1O
#343407
09
#343655
1A
#343682
1@
#343694
0?
#344104
0@
#344212
16
#346372
0)
#346380
0*
#346625
1(
#346975
0+
#360000
0!
0,
#360999
0:
#361117
0;
#380000
1!
1,
#380999
1:
#381117
1;
#382948
18
#383407
19
#384092
1<
#384212
06
#386975
1+
#400000
0!
0,
#400999
0:
#401117
0;
#420000
1!
1,
#420999
1:
#421117
1;
#422948
08
1Q
#423407
09
#424212
16
#426380
1*
#426975
0+
#440000
0!
0,
#440999
0:
#441117
0;
#460000
1!
1,
#460999
1:
#461117
1;
#462948
18
#463407
19
#464065
1?
#464092
0<
#464212
06
#464475
1@
#466975
1+
#480000
0!
0,
#480999
0:
#481117
0;
#500000
1!
1,
#500999
1:
#501117
1;
#502948
08
0Q
1P
#503407
09
#503655
0A
#503682
0@
#503694
0?
#503726
1C
#503765
1A
#503836
0C
#504104
1@
#504212
16
#506372
1)
#506380
0*
#506975
0+
#520000
0!
0,
#520999
0:
#521117
0;
#540000
1!
1,
#540999
1:
#541117
1;
#542948
18
#543407
19
#544092
1<
#544212
06
#546975
1+
#560000
0!
0,
#560999
0:
#561117
0;
#580000
1!
1,
#580999
1:
#581117
1;
#582948
08
1Q
#583407
09
#584212
16
#586380
1*
#586975
0+
#600000
0!
0,
#600999
0:
#601117
0;
#620000
1!
1,
#620999
1:
#621117
1;
#622948
18
#623407
19
#624065
1?
#624092
0<
#624136
0A
#624207
1C
#624212
06
#624475
0@
#624546
0B
#624617
1D
#626975
1+
#640000
0!
0,
#640999
0:
#641117
0;
#660000
1!
1,
#660999
1:
#661117
1;
#662948
08
0Q
0P
0O
1N
#663407
09
#663655
1A
#663682
1@
#663694
0?
#663695
0C
0E
#663766
1E
#664104
0@
#664212
16
#666372
0)
#666380
0*
#666578
1'
#666625
0(
#666975
0+
#680000
0!
0,
#680999
0:
#681117
0;
#700000
1!
1,
#700999
1:
#701117
1;
#702948
18
#703407
19
#704092
1<
#704212
06
#706975
1+
#720000
0!
0,
#720999
0:
#721117
0;
#740000
1!
1,
#740999
1:
#741117
1;
#742948
08
1Q
#743407
09
#744212
16
#746380
1*
#746975
0+
#760000
0!
0,
#760999
0:
#761117
0;
#780000
1!
1,
#780999
1:
#781117
1;
#782948
18
#783407
19
#784065
1?
#784092
0<
#784212
06
#784475
1@
#786975
1+
#800000
0!
0,
#800999
0:
#801117
0;
#820000
1!
1,
#820999
1:
#821117
1;
#822948
08
0Q
1P
#823407
09
#823655
0A
#823682
0@
#823694
0?
#823765
1A
#824104
1@
#824212
16
#826372
1)
#826380
0*
#826975
0+
#840000
0!
0,
#840999
0:
#841117
0;
#860000
1!
1,
#860999
1:
#861117
1;
#862948
18
#863407
19
#864092
1<
#864212
06
#866975
1+
#880000
0!
0,
#880999
0:
#881117
0;
#900000
1!
1,
#900999
1:
#901117
1;
#902948
08
1Q
#903407
09
#904212
16
#906380
1*
#906975
0+
#920000
0!
0,
#920999
0:
#921117
0;
#940000
1!
1,
#940999
1:
#941117
1;
#942948
18
#943407
19
#944065
1?
#944092
0<
#944136
0A
#944212
06
#944475
0@
#944546
1B
#946975
1+
#960000
0!
0,
#960999
0:
#961117
0;
#980000
1!
1,
#980999
1:
#981117
1;
#982948
08
0Q
0P
1O
#983407
09
#983655
1A
#983682
1@
#983694
0?
#984104
0@
#984212
16
#986372
0)
#986380
0*
#986625
1(
#986975
0+
