Lab 5/1/simulation/qsim/myFifthProject.msim.vcd
$comment
	File created using the following command:
		vcd file myFifthProject.msim.vcd -direction
$end
$date
	Sat Apr 17 23:13:51 2021
$end
$version
	ModelSim Version 10.1d
$end
$timescale
	1ps
$end
$scope module full_adder_8_vlg_vec_tst $end
$var reg 8 ! A [7:0] $end
$var reg 8 " B [7:0] $end
$var reg 1 # Cin $end
$var wire 1 $ Cout $end
$var wire 1 % Y [7] $end
$var wire 1 & Y [6] $end
$var wire 1 ' Y [5] $end
$var wire 1 ( Y [4] $end
$var wire 1 ) Y [3] $end
$var wire 1 * Y [2] $end
$var wire 1 + Y [1] $end
$var wire 1 , Y [0] $end
$var wire 1 - sampler $end
$scope module i1 $end
$var wire 1 . gnd $end
$var wire 1 / vcc $end
$var wire 1 0 unknown $end
$var tri1 1 1 devclrn $end
$var tri1 1 2 devpor $end
$var tri1 1 3 devoe $end
$var wire 1 4 u4|Cout~1_combout $end
$var wire 1 5 Cin~combout $end
$var wire 1 6 u0|Sum~0_combout $end
$var wire 1 7 u0|Cout~0_combout $end
$var wire 1 8 u1|Sum~combout $end
$var wire 1 9 u1|Cout~0_combout $end
$var wire 1 : u2|Sum~combout $end
$var wire 1 ; u2|Cout~0_combout $end
$var wire 1 < u3|Sum~combout $end
$var wire 1 = u4|Sum~0_combout $end
$var wire 1 > u4|Sum~combout $end
$var wire 1 ? u4|Cout~0_combout $end
$var wire 1 @ u4|Cout~2_combout $end
$var wire 1 A u5|Sum~combout $end
$var wire 1 B u6|Sum~0_combout $end
$var wire 1 C u6|Sum~1_combout $end
$var wire 1 D u7|Sum~0_combout $end
$var wire 1 E u7|Sum~combout $end
$var wire 1 F B~combout [7] $end
$var wire 1 G B~combout [6] $end
$var wire 1 H B~combout [5] $end
$var wire 1 I B~combout [4] $end
$var wire 1 J B~combout [3] $end
$var wire 1 K B~combout [2] $end
$var wire 1 L B~combout [1] $end
$var wire 1 M B~combout [0] $end
$var wire 1 N A~combout [7] $end
$var wire 1 O A~combout [6] $end
$var wire 1 P A~combout [5] $end
$var wire 1 Q A~combout [4] $end
$var wire 1 R A~combout [3] $end
$var wire 1 S A~combout [2] $end
$var wire 1 T A~combout [1] $end
$var wire 1 U A~combout [0] $end
$upscope $end
$upscope $end
$enddefinitions $end
#0
$dumpvars
b0 !
b0 "
0#
0$
0,
0+
0*
0)
0(
0'
0&
0%
x-
0.
1/
x0
11
12
13
04
05
06
07
08
09
0:
0;
0<
0=
0>
0?
0@
0A
0B
0C
0D
0E
0M
0L
0K
0J
0I
0H
0G
0F
0U
0T
0S
0R
0Q
0P
0O
0N
$end
#10000
b1 !
1U
0-
16
1,
#20000
b11 !
b1 "
b10 !
1M
0U
1T
1-
18
1+
#30000
b11 !
1U
0-
17
06
19
08
0,
1:
0+
1*
#40000
b111 !
b11 "
b101 !
b10 "
b100 !
0M
1L
0U
0T
1S
1-
07
1;
0:
09
18
1<
0*
0;
1:
1+
1)
0<
1*
0)
#50000
b101 !
1U
0-
16
1,
#60000
b111 !
b11 "
b110 !
1M
0U
1T
1-
19
08
1;
0:
0+
1<
0*
1)
#70000
b111 !
1U
0-
17
06
18
0,
1+
#80000
b1111 !
b111 "
b1011 !
b101 "
b1001 !
b100 "
b1000 !
0M
0L
1K
0U
0T
0S
1R
1-
07
09
1>
0<
08
0;
1:
1(
0)
0>
1<
0+
1*
0(
1)
#90000
b1001 !
1U
0-
16
1,
#100000
b1011 !
b101 "
b1010 !
1M
0U
1T
1-
18
1+
#110000
b1011 !
1U
0-
17
06
19
08
0,
1;
0:
0+
1>
0<
0*
1(
0)
#120000
b1111 !
b111 "
b1101 !
b110 "
b1100 !
0M
1L
0U
0T
1S
1-
07
1:
09
18
1*
0:
1+
0*
#130000
b1101 !
1U
0-
16
1,
#140000
b1111 !
b111 "
b1110 !
1M
0U
1T
1-
19
08
1:
0+
1*
#150000
b1111 !
1U
0-
17
06
18
0,
1+
#160000
b11111 !
b1111 "
b10111 !
b1011 "
b10011 !
b1001 "
b10001 !
b1000 "
b10000 !
0M
0L
0K
1J
0U
0T
0S
0R
1Q
1-
07
09
0;
1=
14
08
0:
1<
0+
0*
1)
#170000
b10001 !
1U
0-
16
1,
#180000
b10011 !
b1001 "
b10010 !
1M
0U
1T
1-
18
1+
#190000
b10011 !
1U
0-
17
06
19
08
0,
1:
0+
1*
#200000
b10111 !
b1011 "
b10101 !
b1010 "
b10100 !
0M
1L
0U
0T
1S
1-
07
1;
0:
09
18
1@
0>
0<
0*
0;
1:
1A
1+
0(
0)
0@
1>
1<
1*
1'
0A
1(
1)
0'
#210000
b10101 !
1U
0-
16
1,
#220000
b10111 !
b1011 "
b10110 !
1M
0U
1T
1-
19
08
1;
0:
0+
1@
0>
0<
0*
1A
0(
0)
1'
#230000
b10111 !
1U
0-
17
06
18
0,
1+
#240000
b11111 !
b1111 "
b11011 !
b1101 "
b11001 !
b1100 "
b11000 !
0M
0L
1K
0U
0T
0S
1R
1-
07
09
1<
08
0;
1:
1)
0<
0+
1*
0)
#250000
b11001 !
1U
0-
16
1,
#260000
b11011 !
b1101 "
b11010 !
1M
0U
1T
1-
18
1+
#270000
b11011 !
1U
0-
17
06
19
08
0,
1;
0:
0+
1<
0*
1)
#280000
b11111 !
b1111 "
b11101 !
b1110 "
b11100 !
0M
1L
0U
0T
1S
1-
07
1:
09
18
1*
0:
1+
0*
#290000
b11101 !
1U
0-
16
1,
#300000
b11111 !
b1111 "
b11110 !
1M
0U
1T
1-
19
08
1:
0+
1*
#310000
b11111 !
1U
0-
17
06
18
0,
1+
#320000
b111111 !
b11111 "
b101111 !
b10111 "
b100111 !
b10011 "
b100011 !
b10001 "
b100001 !
b10000 "
b100000 !
0M
0L
0K
0J
1I
0U
0T
0S
0R
0Q
1P
1-
07
09
0;
0@
1>
1B
0A
08
0:
0<
0B
1A
1C
1(
0'
0C
0+
0*
0)
1'
1&
0&
#330000
b100001 !
1U
0-
16
1,
#340000
b100011 !
b10001 "
b100010 !
1M
0U
1T
1-
18
1+
#350000
b100011 !
1U
0-
17
06
19
08
0,
1:
0+
1*
#360000
b100111 !
b10011 "
b100101 !
b10010 "
b100100 !
0M
1L
0U
0T
1S
1-
07
1;
0:
09
18
1<
0*
0;
1:
1+
1)
0<
1*
0)
#370000
b100101 !
1U
0-
16
1,
#380000
b100111 !
b10011 "
b100110 !
1M
0U
1T
1-
19
08
1;
0:
0+
1<
0*
1)
#390000
b100111 !
1U
0-
17
06
18
0,
1+
#400000
b101111 !
b10111 "
b101011 !
b10101 "
b101001 !
b10100 "
b101000 !
0M
0L
1K
0U
0T
0S
1R
1-
07
09
1@
0>
0<
08
0;
1:
1B
0A
0(
0)
0@
1>
1<
1C
0+
1*
0'
0B
1A
1(
1)
1&
0C
1'
0&
#410000
b101001 !
1U
0-
16
1,
#420000
b101011 !
b10101 "
b101010 !
1M
0U
1T
1-
18
1+
#430000
b101011 !
1U
0-
17
06
19
08
0,
1;
0:
0+
1@
0>
0<
0*
1B
0A
0(
0)
1C
0'
1&
#440000
b101111 !
b10111 "
b101101 !
b10110 "
b101100 !
0M
1L
0U
0T
1S
1-
07
1:
09
18
1*
0:
1+
0*
#450000
b101101 !
1U
0-
16
1,
#460000
b101111 !
b10111 "
b101110 !
1M
0U
1T
1-
19
08
1:
0+
1*
#470000
b101111 !
1U
0-
17
06
18
0,
1+
#480000
b111111 !
b11111 "
b110111 !
b11011 "
b110011 !
b11001 "
b110001 !
b11000 "
b110000 !
0M
0L
0K
1J
0U
0T
0S
0R
1Q
1-
07
09
0;
1?
0=
08
0:
0@
1<
0+
0*
1)
#490000
b110001 !
1U
0-
16
1,
#500000
b110011 !
b11001 "
b110010 !
1M
0U
1T
1-
18
1+
#510000
b110011 !
1U
0-
17
06
19
08
0,
1:
0+
1*
#520000
b110111 !
b11011 "
b110101 !
b11010 "
b110100 !
0M
1L
0U
0T
1S
1-
07
1;
0:
09
18
1@
1>
0<
0*
0;
1:
1+
1(
0)
0@
0>
1<
1*
0(
1)
#530000
b110101 !
1U
0-
16
1,
#540000
b110111 !
b11011 "
b110110 !
1M
0U
1T
1-
19
08
1;
0:
0+
1@
1>
0<
0*
1(
0)
#550000
b110111 !
1U
0-
17
06
18
0,
1+
#560000
b111111 !
b11111 "
b111011 !
b11101 "
b111001 !
b11100 "
b111000 !
0M
0L
1K
0U
0T
0S
1R
1-
07
09
1<
08
0;
1:
1)
0<
0+
1*
0)
#570000
b111001 !
1U
0-
16
1,
#580000
b111011 !
b11101 "
b111010 !
1M
0U
1T
1-
18
1+
#590000
b111011 !
1U
0-
17
06
19
08
0,
1;
0:
0+
1<
0*
1)
#600000
b111111 !
b11111 "
b111101 !
b11110 "
b111100 !
0M
1L
0U
0T
1S
1-
07
1:
09
18
1*
0:
1+
0*
#610000
b111101 !
1U
0-
16
1,
#620000
b111111 !
b11111 "
b111110 !
1M
0U
1T
1-
19
08
1:
0+
1*
#630000
b111111 !
1U
0-
17
06
18
0,
1+
#640000
b1111111 !
b111111 "
b1011111 !
b101111 "
b1001111 !
b100111 "
b1000111 !
b100011 "
b1000011 !
b100001 "
b1000001 !
b100000 "
b1000000 !
0M
0L
0K
0J
0I
1H
0U
0T
0S
0R
0Q
0P
1O
1-
07
09
0;
0@
0>
0?
04
1E
0C
08
0:
0<
0B
1A
0(
1%
0&
0E
1C
0+
0*
0)
1'
0%
1&
#650000
b1000001 !
1U
0-
16
1,
#660000
b1000011 !
b100001 "
b1000010 !
1M
0U
1T
1-
18
1+
#670000
b1000011 !
1U
0-
17
06
19
08
0,
1:
0+
1*
#680000
b1000111 !
b100011 "
b1000101 !
b100010 "
b1000100 !
0M
1L
0U
0T
1S
1-
07
1;
0:
09
18
1<
0*
0;
1:
1+
1)
0<
1*
0)
#690000
b1000101 !
1U
0-
16
1,
#700000
b1000111 !
b100011 "
b1000110 !
1M
0U
1T
1-
19
08
1;
0:
0+
1<
0*
1)
#710000
b1000111 !
1U
0-
17
06
18
0,
1+
#720000
b1001111 !
b100111 "
b1001011 !
b100101 "
b1001001 !
b100100 "
b1001000 !
0M
0L
1K
0U
0T
0S
1R
1-
07
09
1>
0<
08
0;
1:
1(
0)
0>
1<
0+
1*
0(
1)
#730000
b1001001 !
1U
0-
16
1,
#740000
b1001011 !
b100101 "
b1001010 !
1M
0U
1T
1-
18
1+
#750000
b1001011 !
1U
0-
17
06
19
08
0,
1;
0:
0+
1>
0<
0*
1(
0)
#760000
b1001111 !
b100111 "
b1001101 !
b100110 "
b1001100 !
0M
1L
0U
0T
1S
1-
07
1:
09
18
1*
0:
1+
0*
#770000
b1001101 !
1U
0-
16
1,
#780000
b1001111 !
b100111 "
b1001110 !
1M
0U
1T
1-
19
08
1:
0+
1*
#790000
b1001111 !
1U
0-
17
06
18
0,
1+
#800000
b1011111 !
b101111 "
b1010111 !
b101011 "
b1010011 !
b101001 "
b1010001 !
b101000 "
b1010000 !
0M
0L
0K
1J
0U
0T
0S
0R
1Q
1-
07
09
0;
1=
14
08
0:
1<
0+
0*
1)
#810000
b1010001 !
1U
0-
16
1,
#820000
b1010011 !
b101001 "
b1010010 !
1M
0U
1T
1-
18
1+
#830000
b1010011 !
1U
0-
17
06
19
08
0,
1:
0+
1*
#840000
b1010111 !
b101011 "
b1010101 !
b101010 "
b1010100 !
0M
1L
0U
0T
1S
1-
07
1;
0:
09
18
1@
0>
0<
0*
0;
1:
1B
0A
1+
0(
0)
0@
1>
1<
1E
0C
1*
0'
0B
1A
1(
1)
1%
0&
0E
1C
1'
0%
1&
#850000
b1010101 !
1U
0-
16
1,
#860000
b1010111 !
b101011 "
b1010110 !
1M
0U
1T
1-
19
08
1;
0:
0+
1@
0>
0<
0*
1B
0A
0(
0)
1E
0C
0'
1%
0&
#870000
b1010111 !
1U
0-
17
06
18
0,
1+
#880000
b1011111 !
b101111 "
b1011011 !
b101101 "
b1011001 !
b101100 "
b1011000 !
0M
0L
1K
0U
0T
0S
1R
1-
07
09
1<
08
0;
1:
1)
0<
0+
1*
0)
#890000
b1011001 !
1U
0-
16
1,
#900000
b1011011 !
b101101 "
b1011010 !
1M
0U
1T
1-
18
1+
#910000
b1011011 !
1U
0-
17
06
19
08
0,
1;
0:
0+
1<
0*
1)
#920000
b1011111 !
b101111 "
b1011101 !
b101110 "
b1011100 !
0M
1L
0U
0T
1S
1-
07
1:
09
18
1*
0:
1+
0*
#930000
b1011101 !
1U
0-
16
1,
#940000
b1011111 !
b101111 "
b1011110 !
1M
0U
1T
1-
19
08
1:
0+
1*
#950000
b1011111 !
1U
0-
17
06
18
0,
1+
#960000
b1111111 !
b111111 "
b1101111 !
b110111 "
b1100111 !
b110011 "
b1100011 !
b110001 "
b1100001 !
b110000 "
b1100000 !
0M
0L
0K
0J
1I
0U
0T
0S
0R
0Q
1P
1-
07
09
0;
0@
1>
1A
08
0:
0<
0A
1(
1'
0+
0*
0)
0'
#970000
b1100001 !
1U
0-
16
1,
#980000
b1100011 !
b110001 "
b1100010 !
1M
0U
1T
1-
18
1+
#990000
b1100011 !
1U
0-
17
06
19
08
0,
1:
0+
1*
