Lab 2/simulation/qsim/my_second_project.msim.vcd
$comment
	File created using the following command:
		vcd file my_second_project.msim.vcd -direction
$end
$date
	Fri Mar 19 21:40:58 2021
$end
$version
	ModelSim Version 10.1d
$end
$timescale
	1ps
$end
$scope module AccumulatorFINAL_vlg_vec_tst $end
$var reg 1 ! ADD_SUB $end
$var reg 1 " clk $end
$var reg 4 # I [3:0] $end
$var reg 1 $ reset $end
$var wire 1 % Acc [7] $end
$var wire 1 & Acc [6] $end
$var wire 1 ' Acc [5] $end
$var wire 1 ( Acc [4] $end
$var wire 1 ) Acc [3] $end
$var wire 1 * Acc [2] $end
$var wire 1 + Acc [1] $end
$var wire 1 , Acc [0] $end
$var wire 1 - Hex6 [6] $end
$var wire 1 . Hex6 [5] $end
$var wire 1 / Hex6 [4] $end
$var wire 1 0 Hex6 [3] $end
$var wire 1 1 Hex6 [2] $end
$var wire 1 2 Hex6 [1] $end
$var wire 1 3 Hex6 [0] $end
$var wire 1 4 Hex7 [6] $end
$var wire 1 5 Hex7 [5] $end
$var wire 1 6 Hex7 [4] $end
$var wire 1 7 Hex7 [3] $end
$var wire 1 8 Hex7 [2] $end
$var wire 1 9 Hex7 [1] $end
$var wire 1 : Hex7 [0] $end
$var wire 1 ; sampler $end
$scope module i1 $end
$var wire 1 < gnd $end
$var wire 1 = vcc $end
$var wire 1 > unknown $end
$var tri1 1 ? devclrn $end
$var tri1 1 @ devpor $end
$var tri1 1 A devoe $end
$var wire 1 B clk~combout $end
$var wire 1 C clk~clk_delay_ctrl_clkout $end
$var wire 1 D clk~clkctrl_outclk $end
$var wire 1 E ADD_SUB~combout $end
$var wire 1 F inst1|inst|inst4~0_combout $end
$var wire 1 G reset~combout $end
$var wire 1 H inst1|inst|inst5~0_combout $end
$var wire 1 I inst1|inst1|inst4~combout $end
$var wire 1 J inst1|inst1|inst5~0_combout $end
$var wire 1 K inst1|inst2|inst4~0_combout $end
$var wire 1 L inst1|inst2|inst5~0_combout $end
$var wire 1 M inst1|inst3|inst4~0_combout $end
$var wire 1 N inst1|inst3|inst5~0_combout $end
$var wire 1 O inst1|inst4|inst4~0_combout $end
$var wire 1 P inst1|inst6|inst4~0_combout $end
$var wire 1 Q inst1|inst6|inst4~1_combout $end
$var wire 1 R inst1|inst7|inst4~0_combout $end
$var wire 1 S inst1|inst7|inst4~combout $end
$var wire 1 T inst1|inst5|inst4~combout $end
$var wire 1 U dec1|WideOr0~0_combout $end
$var wire 1 V dec1|WideOr1~0_combout $end
$var wire 1 W dec1|WideOr2~0_combout $end
$var wire 1 X dec1|WideOr3~0_combout $end
$var wire 1 Y dec1|WideOr4~0_combout $end
$var wire 1 Z dec1|WideOr5~0_combout $end
$var wire 1 [ dec1|WideOr6~0_combout $end
$var wire 1 \ dec0|WideOr0~0_combout $end
$var wire 1 ] dec0|WideOr1~0_combout $end
$var wire 1 ^ dec0|WideOr2~0_combout $end
$var wire 1 _ dec0|WideOr3~0_combout $end
$var wire 1 ` dec0|WideOr4~0_combout $end
$var wire 1 a dec0|WideOr5~0_combout $end
$var wire 1 b dec0|WideOr6~0_combout $end
$var wire 1 c I~combout [3] $end
$var wire 1 d I~combout [2] $end
$var wire 1 e I~combout [1] $end
$var wire 1 f I~combout [0] $end
$var wire 1 g inst|dffs [7] $end
$var wire 1 h inst|dffs [6] $end
$var wire 1 i inst|dffs [5] $end
$var wire 1 j inst|dffs [4] $end
$var wire 1 k inst|dffs [3] $end
$var wire 1 l inst|dffs [2] $end
$var wire 1 m inst|dffs [1] $end
$var wire 1 n inst|dffs [0] $end
$upscope $end
$upscope $end
$enddefinitions $end
#0
$dumpvars
1!
0"
b0 #
1$
0,
0+
0*
0)
0(
0'
0&
0%
03
02
01
00
0/
0.
1-
0:
09
08
07
06
05
14
x;
0<
1=
x>
1?
1@
1A
0B
0C
0D
1E
0F
1G
1H
0I
1J
0K
1L
0M
1N
0O
0P
0Q
0R
0S
0T
0U
0V
0W
0X
0Y
0Z
0[
0\
0]
0^
0_
0`
0a
0b
0f
0e
0d
0c
0n
0m
0l
0k
0j
0i
0h
0g
$end
#20000
1"
0$
1B
0G
0;
1C
1D
#40000
b1 #
0"
1f
0B
1;
0C
0D
0H
1F
0J
1I
0L
1K
0N
1M
1T
1S
1Q
1O
#60000
1"
1B
0;
1C
1D
1i
1g
1h
1j
1k
1l
1m
1n
1a
1`
1_
1\
1R
1P
0O
1Z
1Y
1X
1U
1N
0M
1L
0K
1J
0I
1H
0F
1'
1%
1&
1(
1)
1*
1+
1,
1O
1M
1K
1I
19
18
17
12
11
10
04
0-
#80000
b11 #
b10 #
0"
0f
1e
0B
1;
0C
0D
1F
0I
#100000
1"
1B
0;
1C
1D
0m
1[
0Z
0Y
0X
1V
0J
1I
0+
0K
13
02
01
00
1.
#120000
b11 #
0"
1f
0B
1;
0C
0D
0F
#140000
1"
1B
0;
1C
1D
0l
1m
0n
0[
1X
0V
0L
1K
1J
0I
0H
1F
0*
1+
0,
0M
1L
0K
0J
1I
03
10
0.
1M
0L
1K
0M
#160000
b111 #
b101 #
b100 #
0"
0f
0e
1d
0B
1;
0C
0D
1H
0F
1J
0I
0K
1I
1K
#180000
1"
1B
0;
1C
1D
0k
1l
1Z
0X
0N
1M
1L
0K
0)
1*
0O
1N
0M
12
00
1O
#200000
b101 #
0"
1f
0B
1;
0C
0D
0H
1F
0I
#220000
1"
1B
0;
1C
1D
0l
0m
1n
1[
0Z
1X
1W
1V
0U
0L
1K
0J
1I
1H
0F
0*
0+
1,
0N
1M
0K
1J
0I
13
02
10
1/
1.
1-
0O
1K
#240000
b111 #
b110 #
0"
0f
1e
0B
1;
0C
0D
1F
0J
1I
0K
#260000
1"
1B
0;
1C
1D
0j
1k
1m
0_
0T
1O
1Z
0X
0W
0V
1U
1N
0M
1J
0I
0(
1)
1+
1T
0O
1K
07
12
00
0/
0.
0-
#280000
b111 #
0"
1f
0B
1;
0C
0D
0F
#300000
1"
1B
0;
1C
1D
0k
1l
0m
0n
0Z
1X
1W
0N
1M
1L
0K
0J
1I
0H
1F
0)
1*
0+
0,
0T
1O
1N
0M
0L
1K
0I
02
10
1/
1T
0O
0N
1M
0T
1O
#320000
b1111 #
b1011 #
b1001 #
b1000 #
0"
0f
0e
0d
1c
0B
1;
0C
0D
1H
0F
1I
1L
0K
0M
1J
0I
1M
1K
#340000
1"
1B
0;
1C
1D
0i
1j
1k
1b
0a
0`
1]
0O
0[
1Z
1Y
0X
0W
0U
1N
0M
0'
1(
1)
1O
1:
09
08
15
03
12
11
00
0/
1-
#360000
b1001 #
0"
1f
0B
1;
0C
0D
0H
1F
0J
1I
0K
#380000
1"
1B
0;
1C
1D
0k
0l
1m
1n
0Z
0Y
1W
1V
1U
0N
1M
0L
1K
1J
0I
1H
0F
0)
0*
1+
1,
0O
0M
1L
0K
1I
02
01
1/
1.
0-
1M
#400000
b1011 #
b1010 #
0"
0f
1e
0B
1;
0C
0D
1F
0I
#420000
1"
1B
0;
1C
1D
0j
1k
0m
0b
1a
1`
0]
0\
1T
0P
1O
1X
0V
1N
0M
0J
1I
0(
1)
0+
0T
0O
0L
1K
0:
19
18
05
10
0.
14
0N
1M
1T
0Q
1O
#440000
b1011 #
0"
1f
0B
1;
0C
0D
0F
#460000
1"
1B
0;
1C
1D
1i
0h
1j
1l
1m
0n
1b
0`
1\
1P
0O
1Z
1Y
0X
0W
1L
0K
1J
0I
0H
1F
1'
0&
1(
1*
1+
0,
1N
0M
1K
0J
1I
1:
08
12
11
00
0/
04
1O
0K
#480000
b1111 #
b1101 #
b1100 #
0"
0f
0e
1d
0B
1;
0C
0D
1H
0F
1J
0I
0L
1K
1I
1L
0K
0N
1M
1N
0M
0O
1O
#500000
1"
1B
0;
1C
1D
0k
0l
0Z
1V
0N
1M
0L
1K
0)
0*
0O
0M
02
1.
#520000
b1101 #
0"
1f
0B
1;
0C
0D
0H
1F
0I
#540000
1"
1B
0;
1C
1D
0j
1l
0m
1n
0b
0a
1_
0T
1O
1Z
0Y
1W
0V
1L
0K
0J
1I
1H
0F
0(
1*
0+
1,
1M
0L
1K
1J
0I
0:
09
17
12
01
1/
0.
0M
1L
0K
1M
#560000
b1111 #
b1110 #
0"
0f
1e
0B
1;
0C
0D
1F
0J
1I
0L
1K
0M
#580000
1"
1B
0;
1C
1D
0i
1j
1m
1^
0O
0Z
1X
1V
0U
1J
0I
0'
1(
1+
1L
0K
16
02
10
1.
1-
1M
#600000
b1111 #
0"
1f
0B
1;
0C
0D
0F
#620000
1"
1B
0;
1C
1D
0j
1k
0l
0m
0n
0_
0^
1T
0R
0P
1O
0X
0W
0V
1U
1N
0M
0L
1K
0J
1I
0H
1F
0(
1)
0*
0+
0,
0T
0O
0N
1M
0K
0I
07
06
00
0/
0.
0-
1T
0S
1Q
1O
#640000
b111 #
b11 #
b1 #
b0 #
0"
0f
0e
0d
0c
0B
1;
0C
0D
1H
0F
1I
1K
1N
0M
1J
0I
0T
1S
0Q
0O
1L
0K
1M
#660000
1"
1B
0;
1C
1D
#680000
b1 #
0"
1f
0B
1;
0C
0D
0H
1F
0J
1I
0L
1K
0M
#700000
1"
1B
0;
1C
1D
0k
1l
1m
1n
1X
1W
1V
0U
0N
1M
1L
0K
1J
0I
1H
0F
0)
1*
1+
1,
1T
0S
1Q
1O
1N
0M
1K
1I
10
1/
1.
1-
0T
1S
0Q
0O
#720000
b11 #
b10 #
0"
0f
1e
0B
1;
0C
0D
1F
0I
#740000
1"
1B
0;
1C
1D
0m
1Z
0X
0V
1U
0J
1I
0+
0K
12
00
0.
0-
#760000
b11 #
0"
1f
0B
1;
0C
0D
0F
#780000
1"
1B
0;
1C
1D
0l
1m
0n
0Z
1Y
0W
1V
0L
1K
1J
0I
0H
1F
0*
1+
0,
0N
1M
1L
0K
0J
1I
02
11
0/
1.
1T
0S
1Q
1O
1N
0M
0L
1K
0T
1S
0Q
0O
0N
1M
1T
0S
1Q
1O
#800000
b111 #
b101 #
b100 #
0"
0f
0e
1d
0B
1;
0C
0D
1H
0F
1J
0I
0K
1I
1K
#820000
1"
1B
0;
1C
1D
1i
0g
1h
1j
1k
1l
1_
1^
1]
0\
1R
1P
0O
1Z
0V
1N
0M
1L
0K
1'
0%
1&
1(
1)
1*
1O
1M
17
16
15
12
0.
14
#840000
b101 #
0"
1f
0B
1;
0C
0D
0H
1F
0I
#860000
1"
1B
0;
1C
1D
0l
0m
1n
0Z
0Y
1X
1W
0L
1K
0J
1I
1H
0F
0*
0+
1,
0M
0K
1J
0I
02
01
10
1/
1K
#880000
b111 #
b110 #
0"
0f
1e
0B
1;
0C
0D
1F
0J
1I
0K
#900000
1"
1B
0;
1C
1D
0k
1m
0X
1V
0N
1M
1J
0I
0)
1+
0O
1K
00
1.
#920000
b111 #
0"
1f
0B
1;
0C
0D
0F
#940000
1"
1B
0;
1C
1D
0j
1k
1l
0m
0n
1a
0_
0^
0]
1\
0T
1O
1Z
1Y
0W
0V
0U
1N
0M
1L
0K
0J
1I
0H
1F
0(
1)
1*
0+
0,
1T
0O
1M
0L
1K
0I
19
07
06
05
12
11
0/
0.
04
1-
0M
#960000
b1111 #
b1011 #
b1001 #
b1000 #
0"
0f
0e
0d
1c
0B
1;
0C
0D
1H
0F
1I
1L
0K
0N
1M
1J
0I
1N
0M
0T
1O
1K
1T
0O
#980000
1"
1B
0;
1C
1D
0k
1[
0Z
0Y
1X
1W
1U
0N
1M
0)
0T
1O
13
02
01
10
1/
0-
