Lab 6/2/simulation/qsim/MySixthProject.msim.vcd
$comment
	File created using the following command:
		vcd file MySixthProject.msim.vcd -direction
$end
$date
	Wed Apr 28 00:59:53 2021
$end
$version
	ModelSim Version 10.1d
$end
$timescale
	1ps
$end
$scope module Adder_vlg_vec_tst $end
$var reg 8 ! A [7:0] $end
$var reg 8 " B [7:0] $end
$var wire 1 # Cout $end
$var wire 1 $ Sum [7] $end
$var wire 1 % Sum [6] $end
$var wire 1 & Sum [5] $end
$var wire 1 ' Sum [4] $end
$var wire 1 ( Sum [3] $end
$var wire 1 ) Sum [2] $end
$var wire 1 * Sum [1] $end
$var wire 1 + Sum [0] $end
$var wire 1 , sampler $end
$scope module i1 $end
$var wire 1 - gnd $end
$var wire 1 . vcc $end
$var wire 1 / unknown $end
$var tri1 1 0 devclrn $end
$var tri1 1 1 devpor $end
$var tri1 1 2 devoe $end
$var wire 1 3 Add0~0_combout $end
$var wire 1 4 Add0~1 $end
$var wire 1 5 Add0~2_combout $end
$var wire 1 6 Add0~3 $end
$var wire 1 7 Add0~4_combout $end
$var wire 1 8 Add0~5 $end
$var wire 1 9 Add0~6_combout $end
$var wire 1 : Add0~7 $end
$var wire 1 ; Add0~8_combout $end
$var wire 1 < Add0~9 $end
$var wire 1 = Add0~10_combout $end
$var wire 1 > Add0~11 $end
$var wire 1 ? Add0~12_combout $end
$var wire 1 @ Add0~13 $end
$var wire 1 A Add0~14_combout $end
$var wire 1 B Add0~15 $end
$var wire 1 C Add0~16_combout $end
$var wire 1 D B~combout [7] $end
$var wire 1 E B~combout [6] $end
$var wire 1 F B~combout [5] $end
$var wire 1 G B~combout [4] $end
$var wire 1 H B~combout [3] $end
$var wire 1 I B~combout [2] $end
$var wire 1 J B~combout [1] $end
$var wire 1 K B~combout [0] $end
$var wire 1 L A~combout [7] $end
$var wire 1 M A~combout [6] $end
$var wire 1 N A~combout [5] $end
$var wire 1 O A~combout [4] $end
$var wire 1 P A~combout [3] $end
$var wire 1 Q A~combout [2] $end
$var wire 1 R A~combout [1] $end
$var wire 1 S A~combout [0] $end
$upscope $end
$upscope $end
$enddefinitions $end
#0
$dumpvars
b0 !
b0 "
0#
0+
0*
0)
0(
0'
0&
0%
0$
x,
0-
1.
x/
10
11
12
03
04
05
16
07
08
09
1:
0;
0<
0=
1>
0?
0@
0A
1B
0C
0K
0J
0I
0H
0G
0F
0E
0D
0S
0R
0Q
0P
0O
0N
0M
0L
$end
#20000
b1 !
1S
0,
13
1+
#40000
b11 !
b1 "
b10 !
1K
0S
1R
1,
15
1*
#60000
b11 !
1S
0,
14
03
06
05
0+
17
0*
1)
#80000
b111 !
b11 "
b101 !
b10 "
b100 !
0K
1J
0S
0R
1Q
1,
04
18
07
16
15
19
0)
08
17
1*
1(
09
1)
0(
#100000
b101 !
1S
0,
13
1+
#120000
b111 !
b11 "
b110 !
1K
0S
1R
1,
06
05
18
07
0*
19
0)
1(
#140000
b111 !
1S
0,
14
03
15
0+
1*
#160000
b1111 !
b111 "
b1011 !
b101 "
b1001 !
b100 "
b1000 !
0K
0J
1I
0S
0R
0Q
1P
1,
04
16
0:
09
05
08
17
1;
0(
1:
19
0*
1)
1'
0;
1(
0'
#180000
b1001 !
1S
0,
13
1+
#200000
b1011 !
b101 "
b1010 !
1K
0S
1R
1,
15
1*
#220000
b1011 !
1S
0,
14
03
06
05
0+
18
07
0*
0:
09
0)
1;
0(
1'
#240000
b1111 !
b111 "
b1101 !
b110 "
b1100 !
0K
1J
0S
0R
1Q
1,
04
17
16
15
1)
07
1*
0)
#260000
b1101 !
1S
0,
13
1+
#280000
b1111 !
b111 "
b1110 !
1K
0S
1R
1,
06
05
17
0*
1)
#300000
b1111 !
1S
0,
14
03
15
0+
1*
#320000
b1111 "
b111 !
b1011 "
b11 !
b1001 "
b1 !
b1000 "
b0 !
0S
0R
0Q
0P
0K
0J
0I
1H
1,
04
16
08
05
07
1:
19
0;
0*
0)
1(
0'
#340000
b1 !
1S
0,
13
1+
#360000
b11 !
b1001 "
b10 !
1K
0S
1R
1,
15
1*
#380000
b11 !
1S
0,
14
03
06
05
0+
17
0*
1)
#400000
b111 !
b1011 "
b101 !
b1010 "
b100 !
0K
1J
0S
0R
1Q
1,
04
18
07
16
15
0:
09
0)
08
17
1;
1*
0(
1:
19
1)
1'
0;
1(
0'
#420000
b101 !
1S
0,
13
1+
#440000
b111 !
b1011 "
b110 !
1K
0S
1R
1,
06
05
18
07
0*
0:
09
0)
1;
0(
1'
#460000
b111 !
1S
0,
14
03
15
0+
1*
#480000
b1111 !
b1111 "
b1011 !
b1101 "
b1001 !
b1100 "
b1000 !
0K
0J
1I
0S
0R
0Q
1P
1,
04
16
19
05
08
17
1(
09
0*
1)
0(
#500000
b1001 !
1S
0,
13
1+
#520000
b1011 !
b1101 "
b1010 !
1K
0S
1R
1,
15
1*
#540000
b1011 !
1S
0,
14
03
06
05
0+
18
07
0*
19
0)
1(
#560000
b1111 !
b1111 "
b1101 !
b1110 "
b1100 !
0K
1J
0S
0R
1Q
1,
04
17
16
15
1)
07
1*
0)
#580000
b1101 !
1S
0,
13
1+
#600000
b1111 !
b1111 "
b1110 !
1K
0S
1R
1,
06
05
17
0*
1)
#620000
b1111 !
1S
0,
14
03
15
0+
1*
#640000
b111 "
b111 !
b11 "
b11 !
b1 "
b1 !
b0 "
b0 !
0S
0R
0Q
0P
0K
0J
0I
0H
1,
04
16
08
1:
05
07
09
0;
0*
0)
0(
0'
#660000
b1 !
1S
0,
13
1+
#680000
b11 !
b1 "
b10 !
1K
0S
1R
1,
15
1*
#700000
b11 !
1S
0,
14
03
06
05
0+
17
0*
1)
#720000
b111 !
b11 "
b101 !
b10 "
b100 !
0K
1J
0S
0R
1Q
1,
04
18
07
16
15
19
0)
08
17
1*
1(
09
1)
0(
#740000
b101 !
1S
0,
13
1+
#760000
b111 !
b11 "
b110 !
1K
0S
1R
1,
06
05
18
07
0*
19
0)
1(
#780000
b111 !
1S
0,
14
03
15
0+
1*
#800000
b1111 !
b111 "
b1011 !
b101 "
b1001 !
b100 "
b1000 !
0K
0J
1I
0S
0R
0Q
1P
1,
04
16
0:
09
05
08
17
1;
0(
1:
19
0*
1)
1'
0;
1(
0'
#820000
b1001 !
1S
0,
13
1+
#840000
b1011 !
b101 "
b1010 !
1K
0S
1R
1,
15
1*
#860000
b1011 !
1S
0,
14
03
06
05
0+
18
07
0*
0:
09
0)
1;
0(
1'
#880000
b1111 !
b111 "
b1101 !
b110 "
b1100 !
0K
1J
0S
0R
1Q
1,
04
17
16
15
1)
07
1*
0)
#900000
b1101 !
1S
0,
13
1+
#920000
b1111 !
b111 "
b1110 !
1K
0S
1R
1,
06
05
17
0*
1)
#940000
b1111 !
1S
0,
14
03
15
0+
1*
#960000
b1111 "
b111 !
b1011 "
b11 !
b1001 "
b1 !
b1000 "
b0 !
0S
0R
0Q
0P
0K
0J
0I
1H
1,
04
16
08
05
07
1:
19
0;
0*
0)
1(
0'
#980000
b1 !
1S
0,
13
1+
